FLUKE 287;  V1.16;  41970030

Um volle Zeitstempel anzuzeigen Zellen mit 'T/M/J hh:mm:ss' formatieren.

Startzeit;Stoppzeit;Ausführungszeit;Intervall;Messungen gesamt;Intervalle;Eingangsereignisse;Sitzungsname
21.10.2019 16:34:00;21.10.2019 16:36:00;0:02:00;0:00:01;122;121;2;
Max. Zeit;Max.;;Durchschnittswert;;Min.;;Min. Zeit;Skalierung;
21.10.2019 16:34:37;0,003;V DC;0,00197965179542982;V DC;0,0001;V DC;21.10.2019 16:34:00;(keine)

Messung;Messwert;;Startzeit;Dauer;Max. Zeit;Max.;;Durchschnittswert;;Min. Zeit;Min.;;Beschreibung;Stoppzeit
1;0,0001;V DC;21.10.2019 16:33:59,9;0:00:00,1;21.10.2019 16:33:59,9;0,0001;V DC;0,0001;V DC;21.10.2019 16:33:59,9;0,0001;V DC;Intervall;21.10.2019 16:34:00,0
2;0,0001;V DC;21.10.2019 16:34:00,0;0:00:01,0;21.10.2019 16:34:00,7;0,0002;V DC;0,0001375;V DC;21.10.2019 16:34:00,0;0,0001;V DC;Intervall;21.10.2019 16:34:01,0
3;0,0003;V DC;21.10.2019 16:34:01,0;0:00:01,0;21.10.2019 16:34:01,9;0,0005;V DC;0,0003625;V DC;21.10.2019 16:34:01,0;0,0003;V DC;Intervall;21.10.2019 16:34:02,1
4;0,0005;V DC;21.10.2019 16:34:02,1;0:00:01,0;21.10.2019 16:34:02,7;0,0007;V DC;0,0006125;V DC;21.10.2019 16:34:02,1;0,0005;V DC;Intervall;21.10.2019 16:34:03,1
5;0,0007;V DC;21.10.2019 16:34:03,1;0:00:00,9;21.10.2019 16:34:03,6;0,0009;V DC;0,000828571428571429;V DC;21.10.2019 16:34:03,1;0,0007;V DC;Intervall;21.10.2019 16:34:04,0
6;0,001;V DC;21.10.2019 16:34:04,0;0:00:01,0;21.10.2019 16:34:04,8;0,0012;V DC;0,0010875;V DC;21.10.2019 16:34:04,0;0,001;V DC;Intervall;21.10.2019 16:34:05,1
7;0,0012;V DC;21.10.2019 16:34:05,1;0:00:01,0;21.10.2019 16:34:05,4;0,0013;V DC;0,0012625;V DC;21.10.2019 16:34:05,1;0,0012;V DC;Intervall;21.10.2019 16:34:06,1
8;0,0014;V DC;21.10.2019 16:34:06,1;0:00:01,0;21.10.2019 16:34:06,6;0,0015;V DC;0,00145;V DC;21.10.2019 16:34:06,1;0,0014;V DC;Intervall;21.10.2019 16:34:07,1
9;0,0015;V DC;21.10.2019 16:34:07,1;0:00:00,9;21.10.2019 16:34:07,9;0,0017;V DC;0,0016;V DC;21.10.2019 16:34:07,1;0,0015;V DC;Intervall;21.10.2019 16:34:08,0
10;0,0017;V DC;21.10.2019 16:34:08,0;0:00:01,0;21.10.2019 16:34:08,8;0,0018;V DC;0,001725;V DC;21.10.2019 16:34:08,0;0,0017;V DC;Intervall;21.10.2019 16:34:09,1
11;0,0018;V DC;21.10.2019 16:34:09,1;0:00:01,0;21.10.2019 16:34:09,7;0,0019;V DC;0,0018375;V DC;21.10.2019 16:34:09,1;0,0018;V DC;Intervall;21.10.2019 16:34:10,1
12;0,0019;V DC;21.10.2019 16:34:10,1;0:00:00,9;21.10.2019 16:34:10,6;0,002;V DC;0,00194285714285714;V DC;21.10.2019 16:34:10,1;0,0019;V DC;Intervall;21.10.2019 16:34:11,0
13;0,002;V DC;21.10.2019 16:34:11,0;0:00:01,1;21.10.2019 16:34:11,6;0,0021;V DC;0,00205;V DC;21.10.2019 16:34:11,0;0,002;V DC;Intervall;21.10.2019 16:34:12,1
14;0,0021;V DC;21.10.2019 16:34:12,1;0:00:01,0;21.10.2019 16:34:12,7;0,0022;V DC;0,0021375;V DC;21.10.2019 16:34:12,1;0,0021;V DC;Intervall;21.10.2019 16:34:13,1
15;0,0022;V DC;21.10.2019 16:34:13,1;0:00:01,0;21.10.2019 16:34:14,0;0,0023;V DC;0,0022125;V DC;21.10.2019 16:34:13,1;0,0022;V DC;Intervall;21.10.2019 16:34:14,1
16;0,0023;V DC;21.10.2019 16:34:14,1;0:00:00,9;21.10.2019 16:34:14,1;0,0023;V DC;0,0023;V DC;21.10.2019 16:34:14,1;0,0023;V DC;Intervall;21.10.2019 16:34:15,0
17;0,0024;V DC;21.10.2019 16:34:15,0;0:00:01,0;21.10.2019 16:34:15,0;0,0024;V DC;0,0024;V DC;21.10.2019 16:34:15,0;0,0024;V DC;Intervall;21.10.2019 16:34:16,0
18;0,0024;V DC;21.10.2019 16:34:16,0;0:00:01,1;21.10.2019 16:34:16,0;0,0024;V DC;0,0024;V DC;21.10.2019 16:34:16,0;0,0024;V DC;Intervall;21.10.2019 16:34:17,1
19;0,0025;V DC;21.10.2019 16:34:17,1;0:00:00,9;21.10.2019 16:34:17,1;0,0025;V DC;0,0025;V DC;21.10.2019 16:34:17,1;0,0025;V DC;Intervall;21.10.2019 16:34:18,0
20;0,0025;V DC;21.10.2019 16:34:18,0;0:00:01,0;21.10.2019 16:34:18,9;0,0026;V DC;0,0025125;V DC;21.10.2019 16:34:18,0;0,0025;V DC;Intervall;21.10.2019 16:34:19,0
21;0,0026;V DC;21.10.2019 16:34:19,0;0:00:01,0;21.10.2019 16:34:19,0;0,0026;V DC;0,0026;V DC;21.10.2019 16:34:19,0;0,0026;V DC;Intervall;21.10.2019 16:34:20,1
22;0,0026;V DC;21.10.2019 16:34:20,1;0:00:01,0;21.10.2019 16:34:20,1;0,0026;V DC;0,0026;V DC;21.10.2019 16:34:20,1;0,0026;V DC;Intervall;21.10.2019 16:34:21,1
23;0,0026;V DC;21.10.2019 16:34:21,1;0:00:01,0;21.10.2019 16:34:21,3;0,0027;V DC;0,0026875;V DC;21.10.2019 16:34:21,1;0,0026;V DC;Intervall;21.10.2019 16:34:22,1
24;0,0027;V DC;21.10.2019 16:34:22,1;0:00:00,9;21.10.2019 16:34:22,1;0,0027;V DC;0,0027;V DC;21.10.2019 16:34:22,1;0,0027;V DC;Intervall;21.10.2019 16:34:23,0
25;0,0027;V DC;21.10.2019 16:34:23,0;0:00:01,0;21.10.2019 16:34:23,0;0,0027;V DC;0,0027;V DC;21.10.2019 16:34:23,0;0,0027;V DC;Intervall;21.10.2019 16:34:24,0
26;0,0027;V DC;21.10.2019 16:34:24,0;0:00:01,0;21.10.2019 16:34:24,0;0,0027;V DC;0,0027;V DC;21.10.2019 16:34:24,0;0,0027;V DC;Intervall;21.10.2019 16:34:25,1
27;0,0027;V DC;21.10.2019 16:34:25,1;0:00:00,9;21.10.2019 16:34:25,2;0,0028;V DC;0,00278571428571429;V DC;21.10.2019 16:34:25,1;0,0027;V DC;Intervall;21.10.2019 16:34:26,0
28;0,0028;V DC;21.10.2019 16:34:26,0;0:00:01,0;21.10.2019 16:34:26,0;0,0028;V DC;0,0028;V DC;21.10.2019 16:34:26,0;0,0028;V DC;Intervall;21.10.2019 16:34:27,0
29;0,0028;V DC;21.10.2019 16:34:27,0;0:00:01,1;21.10.2019 16:34:27,0;0,0028;V DC;0,0028;V DC;21.10.2019 16:34:27,0;0,0028;V DC;Intervall;21.10.2019 16:34:28,1
30;0,0028;V DC;21.10.2019 16:34:28,1;0:00:01,0;21.10.2019 16:34:28,1;0,0028;V DC;0,0028;V DC;21.10.2019 16:34:28,1;0,0028;V DC;Intervall;21.10.2019 16:34:29,1
31;0,0028;V DC;21.10.2019 16:34:29,1;0:00:00,9;21.10.2019 16:34:29,5;0,0029;V DC;0,00285714285714286;V DC;21.10.2019 16:34:29,1;0,0028;V DC;Intervall;21.10.2019 16:34:30,0
32;0,0029;V DC;21.10.2019 16:34:30,0;0:00:01,1;21.10.2019 16:34:30,0;0,0029;V DC;0,0029;V DC;21.10.2019 16:34:30,0;0,0029;V DC;Intervall;21.10.2019 16:34:31,1
33;0,0029;V DC;21.10.2019 16:34:31,1;0:00:01,0;21.10.2019 16:34:31,1;0,0029;V DC;0,0029;V DC;21.10.2019 16:34:31,1;0,0029;V DC;Intervall;21.10.2019 16:34:32,1
34;0,0029;V DC;21.10.2019 16:34:32,1;0:00:00,9;21.10.2019 16:34:32,1;0,0029;V DC;0,0029;V DC;21.10.2019 16:34:32,1;0,0029;V DC;Intervall;21.10.2019 16:34:33,0
35;0,0029;V DC;21.10.2019 16:34:33,0;0:00:01,0;21.10.2019 16:34:33,0;0,0029;V DC;0,0029;V DC;21.10.2019 16:34:33,0;0,0029;V DC;Intervall;21.10.2019 16:34:34,1
36;0,0029;V DC;21.10.2019 16:34:34,1;0:00:01,0;21.10.2019 16:34:34,1;0,0029;V DC;0,0029;V DC;21.10.2019 16:34:34,1;0,0029;V DC;Intervall;21.10.2019 16:34:35,1
37;0,0029;V DC;21.10.2019 16:34:35,1;0:00:01,0;21.10.2019 16:34:35,1;0,0029;V DC;0,0029;V DC;21.10.2019 16:34:35,1;0,0029;V DC;Intervall;21.10.2019 16:34:36,1
38;0,0029;V DC;21.10.2019 16:34:36,1;0:00:00,9;21.10.2019 16:34:36,1;0,0029;V DC;0,0029;V DC;21.10.2019 16:34:36,1;0,0029;V DC;Intervall;21.10.2019 16:34:37,0
39;0,0029;V DC;21.10.2019 16:34:37,0;0:00:01,0;21.10.2019 16:34:37,5;0,003;V DC;0,0029375;V DC;21.10.2019 16:34:37,0;0,0029;V DC;Intervall;21.10.2019 16:34:38,1
40;0,003;V DC;21.10.2019 16:34:38,1;0:00:00,9;21.10.2019 16:34:38,1;0,003;V DC;0,003;V DC;21.10.2019 16:34:38,1;0,003;V DC;Intervall;21.10.2019 16:34:39,0
41;0,003;V DC;21.10.2019 16:34:39,0;0:00:01,0;21.10.2019 16:34:39,0;0,003;V DC;0,003;V DC;21.10.2019 16:34:39,0;0,003;V DC;Intervall;21.10.2019 16:34:40,1
42;0,003;V DC;21.10.2019 16:34:40,1;0:00:01,0;21.10.2019 16:34:40,1;0,003;V DC;0,003;V DC;21.10.2019 16:34:40,1;0,003;V DC;Intervall;21.10.2019 16:34:41,1
43;0,003;V DC;21.10.2019 16:34:41,1;0:00:00,9;21.10.2019 16:34:41,1;0,003;V DC;0,003;V DC;21.10.2019 16:34:41,1;0,003;V DC;Intervall;21.10.2019 16:34:42,0
44;0,003;V DC;21.10.2019 16:34:42,0;0:00:01,1;21.10.2019 16:34:42,0;0,003;V DC;0,003;V DC;21.10.2019 16:34:42,0;0,003;V DC;Intervall;21.10.2019 16:34:43,1
45;0,003;V DC;21.10.2019 16:34:43,1;0:00:01,0;21.10.2019 16:34:43,1;0,003;V DC;0,003;V DC;21.10.2019 16:34:43,1;0,003;V DC;Intervall;21.10.2019 16:34:44,1
46;0,003;V DC;21.10.2019 16:34:44,1;0:00:00,9;21.10.2019 16:34:44,1;0,003;V DC;0,003;V DC;21.10.2019 16:34:44,1;0,003;V DC;Intervall;21.10.2019 16:34:45,0
47;0,003;V DC;21.10.2019 16:34:45,0;0:00:01,1;21.10.2019 16:34:45,0;0,003;V DC;0,003;V DC;21.10.2019 16:34:45,0;0,003;V DC;Intervall;21.10.2019 16:34:46,1
48;0,003;V DC;21.10.2019 16:34:46,1;0:00:01,0;21.10.2019 16:34:46,1;0,003;V DC;0,003;V DC;21.10.2019 16:34:46,1;0,003;V DC;Intervall;21.10.2019 16:34:47,1
49;0,003;V DC;21.10.2019 16:34:47,1;0:00:00,9;21.10.2019 16:34:47,1;0,003;V DC;0,003;V DC;21.10.2019 16:34:47,1;0,003;V DC;Intervall;21.10.2019 16:34:48,0
50;0,003;V DC;21.10.2019 16:34:48,0;0:00:01,1;21.10.2019 16:34:48,0;0,003;V DC;0,003;V DC;21.10.2019 16:34:48,0;0,003;V DC;Intervall;21.10.2019 16:34:49,1
51;0,003;V DC;21.10.2019 16:34:49,1;0:00:00,9;21.10.2019 16:34:49,1;0,003;V DC;0,003;V DC;21.10.2019 16:34:49,1;0,003;V DC;Intervall;21.10.2019 16:34:50,1
52;0,003;V DC;21.10.2019 16:34:50,1;0:00:01,1;21.10.2019 16:34:50,1;0,003;V DC;0,003;V DC;21.10.2019 16:34:50,1;0,003;V DC;Intervall;21.10.2019 16:34:51,1
53;0,003;V DC;21.10.2019 16:34:51,1;0:00:00,9;21.10.2019 16:34:51,1;0,003;V DC;0,003;V DC;21.10.2019 16:34:51,1;0,003;V DC;Intervall;21.10.2019 16:34:52,0
54;0,003;V DC;21.10.2019 16:34:52,0;0:00:01,1;21.10.2019 16:34:52,0;0,003;V DC;0,003;V DC;21.10.2019 16:34:52,0;0,003;V DC;Intervall;21.10.2019 16:34:53,1
55;0,003;V DC;21.10.2019 16:34:53,1;0:00:01,1;21.10.2019 16:34:53,1;0,003;V DC;0,003;V DC;21.10.2019 16:34:53,1;0,003;V DC;Intervall;21.10.2019 16:34:54,1
56;0,003;V DC;21.10.2019 16:34:54,1;0:00:00,9;21.10.2019 16:34:54,1;0,003;V DC;0,003;V DC;21.10.2019 16:34:54,1;0,003;V DC;Intervall;21.10.2019 16:34:55,0
57;0,003;V DC;21.10.2019 16:34:55,0;0:00:01,0;21.10.2019 16:34:55,0;0,003;V DC;0,003;V DC;21.10.2019 16:34:55,0;0,003;V DC;Intervall;21.10.2019 16:34:56,1
58;0,003;V DC;21.10.2019 16:34:56,1;0:00:01,0;21.10.2019 16:34:56,1;0,003;V DC;0,003;V DC;21.10.2019 16:34:56,1;0,003;V DC;Intervall;21.10.2019 16:34:57,1
59;0,003;V DC;21.10.2019 16:34:57,1;0:00:00,9;21.10.2019 16:34:57,1;0,003;V DC;0,003;V DC;21.10.2019 16:34:57,1;0,003;V DC;Intervall;21.10.2019 16:34:58,0
60;0,003;V DC;21.10.2019 16:34:58,0;0:00:01,0;21.10.2019 16:34:58,0;0,003;V DC;0,003;V DC;21.10.2019 16:34:58,0;0,003;V DC;Intervall;21.10.2019 16:34:59,1
61;0,003;V DC;21.10.2019 16:34:59,1;0:00:01,0;21.10.2019 16:34:59,1;0,003;V DC;0,003;V DC;21.10.2019 16:34:59,1;0,003;V DC;Intervall;21.10.2019 16:35:00,1
62;0,003;V DC;21.10.2019 16:35:00,1;0:00:01,0;21.10.2019 16:35:00,1;0,003;V DC;0,0029375;V DC;21.10.2019 16:35:00,5;0,0029;V DC;Intervall;21.10.2019 16:35:01,1
63;0,0029;V DC;21.10.2019 16:35:01,1;0:00:00,9;21.10.2019 16:35:01,1;0,0029;V DC;0,00282857142857143;V DC;21.10.2019 16:35:01,4;0,0028;V DC;Intervall;21.10.2019 16:35:02,0
64;0,0028;V DC;21.10.2019 16:35:02,0;0:00:01,1;21.10.2019 16:35:02,0;0,0028;V DC;0,0027375;V DC;21.10.2019 16:35:02,4;0,0027;V DC;Intervall;21.10.2019 16:35:03,1
65;0,0027;V DC;21.10.2019 16:35:03,1;0:00:01,0;21.10.2019 16:35:03,1;0,0027;V DC;0,0026375;V DC;21.10.2019 16:35:03,5;0,0026;V DC;Intervall;21.10.2019 16:35:04,1
66;0,0026;V DC;21.10.2019 16:35:04,1;0:00:00,9;21.10.2019 16:35:04,1;0,0026;V DC;0,00257142857142857;V DC;21.10.2019 16:35:04,8;0,0025;V DC;Intervall;21.10.2019 16:35:05,1
67;0,0025;V DC;21.10.2019 16:35:05,1;0:00:01,0;21.10.2019 16:35:05,1;0,0025;V DC;0,0025;V DC;21.10.2019 16:35:05,1;0,0025;V DC;Intervall;21.10.2019 16:35:06,1
68;0,0024;V DC;21.10.2019 16:35:06,1;0:00:01,0;21.10.2019 16:35:06,1;0,0024;V DC;0,0024;V DC;21.10.2019 16:35:06,1;0,0024;V DC;Intervall;21.10.2019 16:35:07,1
69;0,0024;V DC;21.10.2019 16:35:07,1;0:00:00,9;21.10.2019 16:35:07,1;0,0024;V DC;0,00232857142857143;V DC;21.10.2019 16:35:07,4;0,0023;V DC;Intervall;21.10.2019 16:35:08,0
70;0,0023;V DC;21.10.2019 16:35:08,0;0:00:01,1;21.10.2019 16:35:08,0;0,0023;V DC;0,0022875;V DC;21.10.2019 16:35:09,0;0,0022;V DC;Intervall;21.10.2019 16:35:09,1
71;0,0022;V DC;21.10.2019 16:35:09,1;0:00:00,9;21.10.2019 16:35:09,1;0,0022;V DC;0,0022;V DC;21.10.2019 16:35:09,1;0,0022;V DC;Intervall;21.10.2019 16:35:10,0
72;0,0022;V DC;21.10.2019 16:35:10,0;0:00:01,1;21.10.2019 16:35:10,0;0,0022;V DC;0,0021625;V DC;21.10.2019 16:35:10,7;0,0021;V DC;Intervall;21.10.2019 16:35:11,1
73;0,0021;V DC;21.10.2019 16:35:11,1;0:00:01,1;21.10.2019 16:35:11,1;0,0021;V DC;0,0021;V DC;21.10.2019 16:35:11,1;0,0021;V DC;Intervall;21.10.2019 16:35:12,1
74;0,0021;V DC;21.10.2019 16:35:12,1;0:00:00,9;21.10.2019 16:35:12,1;0,0021;V DC;0,00208571428571429;V DC;21.10.2019 16:35:12,9;0,002;V DC;Intervall;21.10.2019 16:35:13,0
75;0,002;V DC;21.10.2019 16:35:13,0;0:00:01,0;21.10.2019 16:35:13,0;0,002;V DC;0,002;V DC;21.10.2019 16:35:13,0;0,002;V DC;Intervall;21.10.2019 16:35:14,1
76;0,002;V DC;21.10.2019 16:35:14,1;0:00:00,9;21.10.2019 16:35:14,1;0,002;V DC;0,00194285714285714;V DC;21.10.2019 16:35:14,5;0,0019;V DC;Intervall;21.10.2019 16:35:15,0
77;0,0019;V DC;21.10.2019 16:35:15,0;0:00:01,0;21.10.2019 16:35:15,0;0,0019;V DC;0,0019;V DC;21.10.2019 16:35:15,0;0,0019;V DC;Intervall;21.10.2019 16:35:16,0
78;0,0019;V DC;21.10.2019 16:35:16,0;0:00:01,0;21.10.2019 16:35:16,0;0,0019;V DC;0,00185;V DC;21.10.2019 16:35:16,5;0,0018;V DC;Intervall;21.10.2019 16:35:17,0
79;0,0018;V DC;21.10.2019 16:35:17,0;0:00:01,1;21.10.2019 16:35:17,0;0,0018;V DC;0,0018;V DC;21.10.2019 16:35:17,0;0,0018;V DC;Intervall;21.10.2019 16:35:18,1
80;0,0018;V DC;21.10.2019 16:35:18,1;0:00:00,9;21.10.2019 16:35:18,1;0,0018;V DC;0,00174285714285714;V DC;21.10.2019 16:35:18,5;0,0017;V DC;Intervall;21.10.2019 16:35:19,0
81;0,0017;V DC;21.10.2019 16:35:19,0;0:00:01,0;21.10.2019 16:35:19,0;0,0017;V DC;0,0017;V DC;21.10.2019 16:35:19,0;0,0017;V DC;Intervall;21.10.2019 16:35:20,0
82;0,0017;V DC;21.10.2019 16:35:20,0;0:00:01,1;21.10.2019 16:35:20,0;0,0017;V DC;0,001675;V DC;21.10.2019 16:35:20,8;0,0016;V DC;Intervall;21.10.2019 16:35:21,1
83;0,0016;V DC;21.10.2019 16:35:21,1;0:00:01,0;21.10.2019 16:35:21,1;0,0016;V DC;0,0016;V DC;21.10.2019 16:35:21,1;0,0016;V DC;Intervall;21.10.2019 16:35:22,1
84;0,0016;V DC;21.10.2019 16:35:22,1;0:00:00,9;21.10.2019 16:35:22,1;0,0016;V DC;0,00155714285714286;V DC;21.10.2019 16:35:22,7;0,0015;V DC;Intervall;21.10.2019 16:35:23,0
85;0,0015;V DC;21.10.2019 16:35:23,0;0:00:01,0;21.10.2019 16:35:23,0;0,0015;V DC;0,0015;V DC;21.10.2019 16:35:23,0;0,0015;V DC;Intervall;21.10.2019 16:35:24,1
86;0,0015;V DC;21.10.2019 16:35:24,1;0:00:01,1;21.10.2019 16:35:24,1;0,0015;V DC;0,001475;V DC;21.10.2019 16:35:24,8;0,0014;V DC;Intervall;21.10.2019 16:35:25,1
87;0,0014;V DC;21.10.2019 16:35:25,1;0:00:00,9;21.10.2019 16:35:25,1;0,0014;V DC;0,0014;V DC;21.10.2019 16:35:25,1;0,0014;V DC;Intervall;21.10.2019 16:35:26,0
88;0,0014;V DC;21.10.2019 16:35:26,0;0:00:01,1;21.10.2019 16:35:26,0;0,0014;V DC;0,0013875;V DC;21.10.2019 16:35:27,0;0,0013;V DC;Intervall;21.10.2019 16:35:27,1
89;0,0013;V DC;21.10.2019 16:35:27,1;0:00:00,9;21.10.2019 16:35:27,1;0,0013;V DC;0,0013;V DC;21.10.2019 16:35:27,1;0,0013;V DC;Intervall;21.10.2019 16:35:28,0
90;0,0013;V DC;21.10.2019 16:35:28,0;0:00:01,0;21.10.2019 16:35:28,0;0,0013;V DC;0,0013;V DC;21.10.2019 16:35:28,0;0,0013;V DC;Intervall;21.10.2019 16:35:29,1
91;0,0013;V DC;21.10.2019 16:35:29,1;0:00:01,0;21.10.2019 16:35:29,1;0,0013;V DC;0,0012875;V DC;21.10.2019 16:35:29,8;0,0012;V DC;Intervall;21.10.2019 16:35:30,1
92;0,0013;V DC;21.10.2019 16:35:30,1;0:00:00,9;21.10.2019 16:35:30,1;0,0013;V DC;0,00122857142857143;V DC;21.10.2019 16:35:30,4;0,0012;V DC;Intervall;21.10.2019 16:35:31,1
93;0,0012;V DC;21.10.2019 16:35:31,1;0:00:01,0;21.10.2019 16:35:31,1;0,0012;V DC;0,0012;V DC;21.10.2019 16:35:31,1;0,0012;V DC;Intervall;21.10.2019 16:35:32,1
94;0,0012;V DC;21.10.2019 16:35:32,1;0:00:00,9;21.10.2019 16:35:32,1;0,0012;V DC;0,0012;V DC;21.10.2019 16:35:32,1;0,0012;V DC;Intervall;21.10.2019 16:35:33,0
95;0,0012;V DC;21.10.2019 16:35:33,0;0:00:01,1;21.10.2019 16:35:33,0;0,0012;V DC;0,0011625;V DC;21.10.2019 16:35:33,7;0,0011;V DC;Intervall;21.10.2019 16:35:34,1
96;0,0011;V DC;21.10.2019 16:35:34,1;0:00:00,9;21.10.2019 16:35:34,1;0,0011;V DC;0,0011;V DC;21.10.2019 16:35:34,1;0,0011;V DC;Intervall;21.10.2019 16:35:35,0
97;0,0011;V DC;21.10.2019 16:35:35,0;0:00:01,1;21.10.2019 16:35:35,0;0,0011;V DC;0,0011;V DC;21.10.2019 16:35:35,0;0,0011;V DC;Intervall;21.10.2019 16:35:36,1
98;0,0011;V DC;21.10.2019 16:35:36,1;0:00:00,9;21.10.2019 16:35:36,1;0,0011;V DC;0,0011;V DC;21.10.2019 16:35:36,1;0,0011;V DC;Intervall;21.10.2019 16:35:37,0
99;0,0011;V DC;21.10.2019 16:35:37,0;0:00:01,1;21.10.2019 16:35:37,0;0,0011;V DC;0,0011;V DC;21.10.2019 16:35:37,0;0,0011;V DC;Intervall;21.10.2019 16:35:38,1
100;0,0011;V DC;21.10.2019 16:35:38,1;0:00:01,1;21.10.2019 16:35:38,1;0,0011;V DC;0,0011;V DC;21.10.2019 16:35:38,1;0,0011;V DC;Intervall;21.10.2019 16:35:39,1
101;0,001;V DC;21.10.2019 16:35:39,1;0:00:00,9;21.10.2019 16:35:39,1;0,001;V DC;0,001;V DC;21.10.2019 16:35:39,1;0,001;V DC;Intervall;21.10.2019 16:35:40,1
102;0,001;V DC;21.10.2019 16:35:40,1;0:00:01,0;21.10.2019 16:35:40,1;0,001;V DC;0,001;V DC;21.10.2019 16:35:40,1;0,001;V DC;Intervall;21.10.2019 16:35:41,1
103;0,001;V DC;21.10.2019 16:35:41,1;0:00:00,9;21.10.2019 16:35:41,1;0,001;V DC;0,001;V DC;21.10.2019 16:35:41,1;0,001;V DC;Intervall;21.10.2019 16:35:42,0
104;0,001;V DC;21.10.2019 16:35:42,0;0:00:01,1;21.10.2019 16:35:42,0;0,001;V DC;0,001;V DC;21.10.2019 16:35:42,0;0,001;V DC;Intervall;21.10.2019 16:35:43,1
105;0,001;V DC;21.10.2019 16:35:43,1;0:00:01,0;21.10.2019 16:35:43,1;0,001;V DC;0,000975;V DC;21.10.2019 16:35:43,9;0,0009;V DC;Intervall;21.10.2019 16:35:44,1
106;0,0009;V DC;21.10.2019 16:35:44,1;0:00:00,9;21.10.2019 16:35:44,1;0,0009;V DC;0,0009;V DC;21.10.2019 16:35:44,1;0,0009;V DC;Intervall;21.10.2019 16:35:45,0
107;0,0009;V DC;21.10.2019 16:35:45,0;0:00:01,0;21.10.2019 16:35:45,0;0,0009;V DC;0,0009;V DC;21.10.2019 16:35:45,0;0,0009;V DC;Intervall;21.10.2019 16:35:46,0
108;0,0009;V DC;21.10.2019 16:35:46,0;0:00:01,0;21.10.2019 16:35:46,0;0,0009;V DC;0,0009;V DC;21.10.2019 16:35:46,0;0,0009;V DC;Intervall;21.10.2019 16:35:47,1
109;0,0009;V DC;21.10.2019 16:35:47,1;0:00:00,9;21.10.2019 16:35:47,1;0,0009;V DC;0,0009;V DC;21.10.2019 16:35:47,1;0,0009;V DC;Intervall;21.10.2019 16:35:48,0
110;0,0009;V DC;21.10.2019 16:35:48,0;0:00:01,1;21.10.2019 16:35:48,0;0,0009;V DC;0,0008375;V DC;21.10.2019 16:35:48,4;0,0008;V DC;Intervall;21.10.2019 16:35:49,1
111;0,0008;V DC;21.10.2019 16:35:49,1;0:00:01,0;21.10.2019 16:35:49,1;0,0008;V DC;0,0008;V DC;21.10.2019 16:35:49,1;0,0008;V DC;Intervall;21.10.2019 16:35:50,1
112;0,0008;V DC;21.10.2019 16:35:50,1;0:00:01,0;21.10.2019 16:35:50,1;0,0008;V DC;0,0008;V DC;21.10.2019 16:35:50,1;0,0008;V DC;Intervall;21.10.2019 16:35:51,1
113;0,0008;V DC;21.10.2019 16:35:51,1;0:00:00,9;21.10.2019 16:35:51,1;0,0008;V DC;0,000757142857142857;V DC;21.10.2019 16:35:51,7;0,0007;V DC;Intervall;21.10.2019 16:35:52,0
114;0,0007;V DC;21.10.2019 16:35:52,0;0:00:01,0;21.10.2019 16:35:52,0;0,0007;V DC;0,0007;V DC;21.10.2019 16:35:52,0;0,0007;V DC;Intervall;21.10.2019 16:35:53,1
115;0,0007;V DC;21.10.2019 16:35:53,1;0:00:01,0;21.10.2019 16:35:53,1;0,0007;V DC;0,0007;V DC;21.10.2019 16:35:53,1;0,0007;V DC;Intervall;21.10.2019 16:35:54,1
116;0,0007;V DC;21.10.2019 16:35:54,1;0:00:00,9;21.10.2019 16:35:54,1;0,0007;V DC;0,0007;V DC;21.10.2019 16:35:54,1;0,0007;V DC;Intervall;21.10.2019 16:35:55,0
117;0,0007;V DC;21.10.2019 16:35:55,0;0:00:01,0;21.10.2019 16:35:55,0;0,0007;V DC;0,0007;V DC;21.10.2019 16:35:55,0;0,0007;V DC;Intervall;21.10.2019 16:35:56,1
118;0,0007;V DC;21.10.2019 16:35:56,1;0:00:01,1;21.10.2019 16:35:56,1;0,0007;V DC;0,0007;V DC;21.10.2019 16:35:56,1;0,0007;V DC;Intervall;21.10.2019 16:35:57,1
119;0,0007;V DC;21.10.2019 16:35:57,1;0:00:00,9;21.10.2019 16:35:57,1;0,0007;V DC;0,000685714285714286;V DC;21.10.2019 16:35:57,5;0,0006;V DC;Intervall;21.10.2019 16:35:58,1
120;0,0007;V DC;21.10.2019 16:35:58,1;0:00:01,0;21.10.2019 16:35:58,1;0,0007;V DC;0,0006875;V DC;21.10.2019 16:35:58,8;0,0006;V DC;Intervall;21.10.2019 16:35:59,1
121;0,0006;V DC;21.10.2019 16:35:59,1;0:00:00,7;21.10.2019 16:35:59,1;0,0006;V DC;0,0006;V DC;21.10.2019 16:35:59,1;0,0006;V DC;Stabil;21.10.2019 16:35:59,7
122;0,0006;V DC;21.10.2019 16:35:59,7;0:00:00,0;;;;;;;;;Aufzeichnung gestoppt;21.10.2019 16:35:59,7

;;V DC;;Durchschnittswert V DC
1;Messwert;0,0001;21.10.2019 16:33:59,9;0,0001
1;Max.;0,0001;21.10.2019 16:33:59,9
1;Min.;0,0001;21.10.2019 16:33:59,9
2;Messwert;0,0001;21.10.2019 16:34:00,0;0,0001375
2;Min.;0,0001;21.10.2019 16:34:00,0
2;Max.;0,0002;21.10.2019 16:34:00,7
3;Messwert;0,0003;21.10.2019 16:34:01,0;0,0003625
3;Min.;0,0003;21.10.2019 16:34:01,0
3;Max.;0,0005;21.10.2019 16:34:01,9
4;Messwert;0,0005;21.10.2019 16:34:02,1;0,0006125
4;Min.;0,0005;21.10.2019 16:34:02,1
4;Max.;0,0007;21.10.2019 16:34:02,7
5;Messwert;0,0007;21.10.2019 16:34:03,1;0,000828571428571429
5;Min.;0,0007;21.10.2019 16:34:03,1
5;Max.;0,0009;21.10.2019 16:34:03,6
6;Messwert;0,001;21.10.2019 16:34:04,0;0,0010875
6;Min.;0,001;21.10.2019 16:34:04,0
6;Max.;0,0012;21.10.2019 16:34:04,8
7;Messwert;0,0012;21.10.2019 16:34:05,1;0,0012625
7;Min.;0,0012;21.10.2019 16:34:05,1
7;Max.;0,0013;21.10.2019 16:34:05,4
8;Messwert;0,0014;21.10.2019 16:34:06,1;0,00145
8;Min.;0,0014;21.10.2019 16:34:06,1
8;Max.;0,0015;21.10.2019 16:34:06,6
9;Messwert;0,0015;21.10.2019 16:34:07,1;0,0016
9;Min.;0,0015;21.10.2019 16:34:07,1
9;Max.;0,0017;21.10.2019 16:34:07,9
10;Messwert;0,0017;21.10.2019 16:34:08,0;0,001725
10;Min.;0,0017;21.10.2019 16:34:08,0
10;Max.;0,0018;21.10.2019 16:34:08,8
11;Messwert;0,0018;21.10.2019 16:34:09,1;0,0018375
11;Min.;0,0018;21.10.2019 16:34:09,1
11;Max.;0,0019;21.10.2019 16:34:09,7
12;Messwert;0,0019;21.10.2019 16:34:10,1;0,00194285714285714
12;Min.;0,0019;21.10.2019 16:34:10,1
12;Max.;0,002;21.10.2019 16:34:10,6
13;Messwert;0,002;21.10.2019 16:34:11,0;0,00205
13;Min.;0,002;21.10.2019 16:34:11,0
13;Max.;0,0021;21.10.2019 16:34:11,6
14;Messwert;0,0021;21.10.2019 16:34:12,1;0,0021375
14;Min.;0,0021;21.10.2019 16:34:12,1
14;Max.;0,0022;21.10.2019 16:34:12,7
15;Messwert;0,0022;21.10.2019 16:34:13,1;0,0022125
15;Min.;0,0022;21.10.2019 16:34:13,1
15;Max.;0,0023;21.10.2019 16:34:14,0
16;Messwert;0,0023;21.10.2019 16:34:14,1;0,0023
16;Max.;0,0023;21.10.2019 16:34:14,1
16;Min.;0,0023;21.10.2019 16:34:14,1
17;Messwert;0,0024;21.10.2019 16:34:15,0;0,0024
17;Max.;0,0024;21.10.2019 16:34:15,0
17;Min.;0,0024;21.10.2019 16:34:15,0
18;Messwert;0,0024;21.10.2019 16:34:16,0;0,0024
18;Max.;0,0024;21.10.2019 16:34:16,0
18;Min.;0,0024;21.10.2019 16:34:16,0
19;Messwert;0,0025;21.10.2019 16:34:17,1;0,0025
19;Max.;0,0025;21.10.2019 16:34:17,1
19;Min.;0,0025;21.10.2019 16:34:17,1
20;Messwert;0,0025;21.10.2019 16:34:18,0;0,0025125
20;Min.;0,0025;21.10.2019 16:34:18,0
20;Max.;0,0026;21.10.2019 16:34:18,9
21;Messwert;0,0026;21.10.2019 16:34:19,0;0,0026
21;Max.;0,0026;21.10.2019 16:34:19,0
21;Min.;0,0026;21.10.2019 16:34:19,0
22;Messwert;0,0026;21.10.2019 16:34:20,1;0,0026
22;Max.;0,0026;21.10.2019 16:34:20,1
22;Min.;0,0026;21.10.2019 16:34:20,1
23;Messwert;0,0026;21.10.2019 16:34:21,1;0,0026875
23;Min.;0,0026;21.10.2019 16:34:21,1
23;Max.;0,0027;21.10.2019 16:34:21,3
24;Messwert;0,0027;21.10.2019 16:34:22,1;0,0027
24;Max.;0,0027;21.10.2019 16:34:22,1
24;Min.;0,0027;21.10.2019 16:34:22,1
25;Messwert;0,0027;21.10.2019 16:34:23,0;0,0027
25;Max.;0,0027;21.10.2019 16:34:23,0
25;Min.;0,0027;21.10.2019 16:34:23,0
26;Messwert;0,0027;21.10.2019 16:34:24,0;0,0027
26;Max.;0,0027;21.10.2019 16:34:24,0
26;Min.;0,0027;21.10.2019 16:34:24,0
27;Messwert;0,0027;21.10.2019 16:34:25,1;0,00278571428571429
27;Min.;0,0027;21.10.2019 16:34:25,1
27;Max.;0,0028;21.10.2019 16:34:25,2
28;Messwert;0,0028;21.10.2019 16:34:26,0;0,0028
28;Max.;0,0028;21.10.2019 16:34:26,0
28;Min.;0,0028;21.10.2019 16:34:26,0
29;Messwert;0,0028;21.10.2019 16:34:27,0;0,0028
29;Max.;0,0028;21.10.2019 16:34:27,0
29;Min.;0,0028;21.10.2019 16:34:27,0
30;Messwert;0,0028;21.10.2019 16:34:28,1;0,0028
30;Max.;0,0028;21.10.2019 16:34:28,1
30;Min.;0,0028;21.10.2019 16:34:28,1
31;Messwert;0,0028;21.10.2019 16:34:29,1;0,00285714285714286
31;Min.;0,0028;21.10.2019 16:34:29,1
31;Max.;0,0029;21.10.2019 16:34:29,5
32;Messwert;0,0029;21.10.2019 16:34:30,0;0,0029
32;Max.;0,0029;21.10.2019 16:34:30,0
32;Min.;0,0029;21.10.2019 16:34:30,0
33;Messwert;0,0029;21.10.2019 16:34:31,1;0,0029
33;Max.;0,0029;21.10.2019 16:34:31,1
33;Min.;0,0029;21.10.2019 16:34:31,1
34;Messwert;0,0029;21.10.2019 16:34:32,1;0,0029
34;Max.;0,0029;21.10.2019 16:34:32,1
34;Min.;0,0029;21.10.2019 16:34:32,1
35;Messwert;0,0029;21.10.2019 16:34:33,0;0,0029
35;Max.;0,0029;21.10.2019 16:34:33,0
35;Min.;0,0029;21.10.2019 16:34:33,0
36;Messwert;0,0029;21.10.2019 16:34:34,1;0,0029
36;Max.;0,0029;21.10.2019 16:34:34,1
36;Min.;0,0029;21.10.2019 16:34:34,1
37;Messwert;0,0029;21.10.2019 16:34:35,1;0,0029
37;Max.;0,0029;21.10.2019 16:34:35,1
37;Min.;0,0029;21.10.2019 16:34:35,1
38;Messwert;0,0029;21.10.2019 16:34:36,1;0,0029
38;Max.;0,0029;21.10.2019 16:34:36,1
38;Min.;0,0029;21.10.2019 16:34:36,1
39;Messwert;0,0029;21.10.2019 16:34:37,0;0,0029375
39;Min.;0,0029;21.10.2019 16:34:37,0
39;Max.;0,003;21.10.2019 16:34:37,5
40;Messwert;0,003;21.10.2019 16:34:38,1;0,003
40;Max.;0,003;21.10.2019 16:34:38,1
40;Min.;0,003;21.10.2019 16:34:38,1
41;Messwert;0,003;21.10.2019 16:34:39,0;0,003
41;Max.;0,003;21.10.2019 16:34:39,0
41;Min.;0,003;21.10.2019 16:34:39,0
42;Messwert;0,003;21.10.2019 16:34:40,1;0,003
42;Max.;0,003;21.10.2019 16:34:40,1
42;Min.;0,003;21.10.2019 16:34:40,1
43;Messwert;0,003;21.10.2019 16:34:41,1;0,003
43;Max.;0,003;21.10.2019 16:34:41,1
43;Min.;0,003;21.10.2019 16:34:41,1
44;Messwert;0,003;21.10.2019 16:34:42,0;0,003
44;Max.;0,003;21.10.2019 16:34:42,0
44;Min.;0,003;21.10.2019 16:34:42,0
45;Messwert;0,003;21.10.2019 16:34:43,1;0,003
45;Max.;0,003;21.10.2019 16:34:43,1
45;Min.;0,003;21.10.2019 16:34:43,1
46;Messwert;0,003;21.10.2019 16:34:44,1;0,003
46;Max.;0,003;21.10.2019 16:34:44,1
46;Min.;0,003;21.10.2019 16:34:44,1
47;Messwert;0,003;21.10.2019 16:34:45,0;0,003
47;Max.;0,003;21.10.2019 16:34:45,0
47;Min.;0,003;21.10.2019 16:34:45,0
48;Messwert;0,003;21.10.2019 16:34:46,1;0,003
48;Max.;0,003;21.10.2019 16:34:46,1
48;Min.;0,003;21.10.2019 16:34:46,1
49;Messwert;0,003;21.10.2019 16:34:47,1;0,003
49;Max.;0,003;21.10.2019 16:34:47,1
49;Min.;0,003;21.10.2019 16:34:47,1
50;Messwert;0,003;21.10.2019 16:34:48,0;0,003
50;Max.;0,003;21.10.2019 16:34:48,0
50;Min.;0,003;21.10.2019 16:34:48,0
51;Messwert;0,003;21.10.2019 16:34:49,1;0,003
51;Max.;0,003;21.10.2019 16:34:49,1
51;Min.;0,003;21.10.2019 16:34:49,1
52;Messwert;0,003;21.10.2019 16:34:50,1;0,003
52;Max.;0,003;21.10.2019 16:34:50,1
52;Min.;0,003;21.10.2019 16:34:50,1
53;Messwert;0,003;21.10.2019 16:34:51,1;0,003
53;Max.;0,003;21.10.2019 16:34:51,1
53;Min.;0,003;21.10.2019 16:34:51,1
54;Messwert;0,003;21.10.2019 16:34:52,0;0,003
54;Max.;0,003;21.10.2019 16:34:52,0
54;Min.;0,003;21.10.2019 16:34:52,0
55;Messwert;0,003;21.10.2019 16:34:53,1;0,003
55;Max.;0,003;21.10.2019 16:34:53,1
55;Min.;0,003;21.10.2019 16:34:53,1
56;Messwert;0,003;21.10.2019 16:34:54,1;0,003
56;Max.;0,003;21.10.2019 16:34:54,1
56;Min.;0,003;21.10.2019 16:34:54,1
57;Messwert;0,003;21.10.2019 16:34:55,0;0,003
57;Max.;0,003;21.10.2019 16:34:55,0
57;Min.;0,003;21.10.2019 16:34:55,0
58;Messwert;0,003;21.10.2019 16:34:56,1;0,003
58;Max.;0,003;21.10.2019 16:34:56,1
58;Min.;0,003;21.10.2019 16:34:56,1
59;Messwert;0,003;21.10.2019 16:34:57,1;0,003
59;Max.;0,003;21.10.2019 16:34:57,1
59;Min.;0,003;21.10.2019 16:34:57,1
60;Messwert;0,003;21.10.2019 16:34:58,0;0,003
60;Max.;0,003;21.10.2019 16:34:58,0
60;Min.;0,003;21.10.2019 16:34:58,0
61;Messwert;0,003;21.10.2019 16:34:59,1;0,003
61;Max.;0,003;21.10.2019 16:34:59,1
61;Min.;0,003;21.10.2019 16:34:59,1
62;Messwert;0,003;21.10.2019 16:35:00,1;0,0029375
62;Max.;0,003;21.10.2019 16:35:00,1
62;Min.;0,0029;21.10.2019 16:35:00,5
63;Messwert;0,0029;21.10.2019 16:35:01,1;0,00282857142857143
63;Max.;0,0029;21.10.2019 16:35:01,1
63;Min.;0,0028;21.10.2019 16:35:01,4
64;Messwert;0,0028;21.10.2019 16:35:02,0;0,0027375
64;Max.;0,0028;21.10.2019 16:35:02,0
64;Min.;0,0027;21.10.2019 16:35:02,4
65;Messwert;0,0027;21.10.2019 16:35:03,1;0,0026375
65;Max.;0,0027;21.10.2019 16:35:03,1
65;Min.;0,0026;21.10.2019 16:35:03,5
66;Messwert;0,0026;21.10.2019 16:35:04,1;0,00257142857142857
66;Max.;0,0026;21.10.2019 16:35:04,1
66;Min.;0,0025;21.10.2019 16:35:04,8
67;Messwert;0,0025;21.10.2019 16:35:05,1;0,0025
67;Max.;0,0025;21.10.2019 16:35:05,1
67;Min.;0,0025;21.10.2019 16:35:05,1
68;Messwert;0,0024;21.10.2019 16:35:06,1;0,0024
68;Max.;0,0024;21.10.2019 16:35:06,1
68;Min.;0,0024;21.10.2019 16:35:06,1
69;Messwert;0,0024;21.10.2019 16:35:07,1;0,00232857142857143
69;Max.;0,0024;21.10.2019 16:35:07,1
69;Min.;0,0023;21.10.2019 16:35:07,4
70;Messwert;0,0023;21.10.2019 16:35:08,0;0,0022875
70;Max.;0,0023;21.10.2019 16:35:08,0
70;Min.;0,0022;21.10.2019 16:35:09,0
71;Messwert;0,0022;21.10.2019 16:35:09,1;0,0022
71;Max.;0,0022;21.10.2019 16:35:09,1
71;Min.;0,0022;21.10.2019 16:35:09,1
72;Messwert;0,0022;21.10.2019 16:35:10,0;0,0021625
72;Max.;0,0022;21.10.2019 16:35:10,0
72;Min.;0,0021;21.10.2019 16:35:10,7
73;Messwert;0,0021;21.10.2019 16:35:11,1;0,0021
73;Max.;0,0021;21.10.2019 16:35:11,1
73;Min.;0,0021;21.10.2019 16:35:11,1
74;Messwert;0,0021;21.10.2019 16:35:12,1;0,00208571428571429
74;Max.;0,0021;21.10.2019 16:35:12,1
74;Min.;0,002;21.10.2019 16:35:12,9
75;Messwert;0,002;21.10.2019 16:35:13,0;0,002
75;Max.;0,002;21.10.2019 16:35:13,0
75;Min.;0,002;21.10.2019 16:35:13,0
76;Messwert;0,002;21.10.2019 16:35:14,1;0,00194285714285714
76;Max.;0,002;21.10.2019 16:35:14,1
76;Min.;0,0019;21.10.2019 16:35:14,5
77;Messwert;0,0019;21.10.2019 16:35:15,0;0,0019
77;Max.;0,0019;21.10.2019 16:35:15,0
77;Min.;0,0019;21.10.2019 16:35:15,0
78;Messwert;0,0019;21.10.2019 16:35:16,0;0,00185
78;Max.;0,0019;21.10.2019 16:35:16,0
78;Min.;0,0018;21.10.2019 16:35:16,5
79;Messwert;0,0018;21.10.2019 16:35:17,0;0,0018
79;Max.;0,0018;21.10.2019 16:35:17,0
79;Min.;0,0018;21.10.2019 16:35:17,0
80;Messwert;0,0018;21.10.2019 16:35:18,1;0,00174285714285714
80;Max.;0,0018;21.10.2019 16:35:18,1
80;Min.;0,0017;21.10.2019 16:35:18,5
81;Messwert;0,0017;21.10.2019 16:35:19,0;0,0017
81;Max.;0,0017;21.10.2019 16:35:19,0
81;Min.;0,0017;21.10.2019 16:35:19,0
82;Messwert;0,0017;21.10.2019 16:35:20,0;0,001675
82;Max.;0,0017;21.10.2019 16:35:20,0
82;Min.;0,0016;21.10.2019 16:35:20,8
83;Messwert;0,0016;21.10.2019 16:35:21,1;0,0016
83;Max.;0,0016;21.10.2019 16:35:21,1
83;Min.;0,0016;21.10.2019 16:35:21,1
84;Messwert;0,0016;21.10.2019 16:35:22,1;0,00155714285714286
84;Max.;0,0016;21.10.2019 16:35:22,1
84;Min.;0,0015;21.10.2019 16:35:22,7
85;Messwert;0,0015;21.10.2019 16:35:23,0;0,0015
85;Max.;0,0015;21.10.2019 16:35:23,0
85;Min.;0,0015;21.10.2019 16:35:23,0
86;Messwert;0,0015;21.10.2019 16:35:24,1;0,001475
86;Max.;0,0015;21.10.2019 16:35:24,1
86;Min.;0,0014;21.10.2019 16:35:24,8
87;Messwert;0,0014;21.10.2019 16:35:25,1;0,0014
87;Max.;0,0014;21.10.2019 16:35:25,1
87;Min.;0,0014;21.10.2019 16:35:25,1
88;Messwert;0,0014;21.10.2019 16:35:26,0;0,0013875
88;Max.;0,0014;21.10.2019 16:35:26,0
88;Min.;0,0013;21.10.2019 16:35:27,0
89;Messwert;0,0013;21.10.2019 16:35:27,1;0,0013
89;Max.;0,0013;21.10.2019 16:35:27,1
89;Min.;0,0013;21.10.2019 16:35:27,1
90;Messwert;0,0013;21.10.2019 16:35:28,0;0,0013
90;Max.;0,0013;21.10.2019 16:35:28,0
90;Min.;0,0013;21.10.2019 16:35:28,0
91;Messwert;0,0013;21.10.2019 16:35:29,1;0,0012875
91;Max.;0,0013;21.10.2019 16:35:29,1
91;Min.;0,0012;21.10.2019 16:35:29,8
92;Messwert;0,0013;21.10.2019 16:35:30,1;0,00122857142857143
92;Max.;0,0013;21.10.2019 16:35:30,1
92;Min.;0,0012;21.10.2019 16:35:30,4
93;Messwert;0,0012;21.10.2019 16:35:31,1;0,0012
93;Max.;0,0012;21.10.2019 16:35:31,1
93;Min.;0,0012;21.10.2019 16:35:31,1
94;Messwert;0,0012;21.10.2019 16:35:32,1;0,0012
94;Max.;0,0012;21.10.2019 16:35:32,1
94;Min.;0,0012;21.10.2019 16:35:32,1
95;Messwert;0,0012;21.10.2019 16:35:33,0;0,0011625
95;Max.;0,0012;21.10.2019 16:35:33,0
95;Min.;0,0011;21.10.2019 16:35:33,7
96;Messwert;0,0011;21.10.2019 16:35:34,1;0,0011
96;Max.;0,0011;21.10.2019 16:35:34,1
96;Min.;0,0011;21.10.2019 16:35:34,1
97;Messwert;0,0011;21.10.2019 16:35:35,0;0,0011
97;Max.;0,0011;21.10.2019 16:35:35,0
97;Min.;0,0011;21.10.2019 16:35:35,0
98;Messwert;0,0011;21.10.2019 16:35:36,1;0,0011
98;Max.;0,0011;21.10.2019 16:35:36,1
98;Min.;0,0011;21.10.2019 16:35:36,1
99;Messwert;0,0011;21.10.2019 16:35:37,0;0,0011
99;Max.;0,0011;21.10.2019 16:35:37,0
99;Min.;0,0011;21.10.2019 16:35:37,0
100;Messwert;0,0011;21.10.2019 16:35:38,1;0,0011
100;Max.;0,0011;21.10.2019 16:35:38,1
100;Min.;0,0011;21.10.2019 16:35:38,1
101;Messwert;0,001;21.10.2019 16:35:39,1;0,001
101;Max.;0,001;21.10.2019 16:35:39,1
101;Min.;0,001;21.10.2019 16:35:39,1
102;Messwert;0,001;21.10.2019 16:35:40,1;0,001
102;Max.;0,001;21.10.2019 16:35:40,1
102;Min.;0,001;21.10.2019 16:35:40,1
103;Messwert;0,001;21.10.2019 16:35:41,1;0,001
103;Max.;0,001;21.10.2019 16:35:41,1
103;Min.;0,001;21.10.2019 16:35:41,1
104;Messwert;0,001;21.10.2019 16:35:42,0;0,001
104;Max.;0,001;21.10.2019 16:35:42,0
104;Min.;0,001;21.10.2019 16:35:42,0
105;Messwert;0,001;21.10.2019 16:35:43,1;0,000975
105;Max.;0,001;21.10.2019 16:35:43,1
105;Min.;0,0009;21.10.2019 16:35:43,9
106;Messwert;0,0009;21.10.2019 16:35:44,1;0,0009
106;Max.;0,0009;21.10.2019 16:35:44,1
106;Min.;0,0009;21.10.2019 16:35:44,1
107;Messwert;0,0009;21.10.2019 16:35:45,0;0,0009
107;Max.;0,0009;21.10.2019 16:35:45,0
107;Min.;0,0009;21.10.2019 16:35:45,0
108;Messwert;0,0009;21.10.2019 16:35:46,0;0,0009
108;Max.;0,0009;21.10.2019 16:35:46,0
108;Min.;0,0009;21.10.2019 16:35:46,0
109;Messwert;0,0009;21.10.2019 16:35:47,1;0,0009
109;Max.;0,0009;21.10.2019 16:35:47,1
109;Min.;0,0009;21.10.2019 16:35:47,1
110;Messwert;0,0009;21.10.2019 16:35:48,0;0,0008375
110;Max.;0,0009;21.10.2019 16:35:48,0
110;Min.;0,0008;21.10.2019 16:35:48,4
111;Messwert;0,0008;21.10.2019 16:35:49,1;0,0008
111;Max.;0,0008;21.10.2019 16:35:49,1
111;Min.;0,0008;21.10.2019 16:35:49,1
112;Messwert;0,0008;21.10.2019 16:35:50,1;0,0008
112;Max.;0,0008;21.10.2019 16:35:50,1
112;Min.;0,0008;21.10.2019 16:35:50,1
113;Messwert;0,0008;21.10.2019 16:35:51,1;0,000757142857142857
113;Max.;0,0008;21.10.2019 16:35:51,1
113;Min.;0,0007;21.10.2019 16:35:51,7
114;Messwert;0,0007;21.10.2019 16:35:52,0;0,0007
114;Max.;0,0007;21.10.2019 16:35:52,0
114;Min.;0,0007;21.10.2019 16:35:52,0
115;Messwert;0,0007;21.10.2019 16:35:53,1;0,0007
115;Max.;0,0007;21.10.2019 16:35:53,1
115;Min.;0,0007;21.10.2019 16:35:53,1
116;Messwert;0,0007;21.10.2019 16:35:54,1;0,0007
116;Max.;0,0007;21.10.2019 16:35:54,1
116;Min.;0,0007;21.10.2019 16:35:54,1
117;Messwert;0,0007;21.10.2019 16:35:55,0;0,0007
117;Max.;0,0007;21.10.2019 16:35:55,0
117;Min.;0,0007;21.10.2019 16:35:55,0
118;Messwert;0,0007;21.10.2019 16:35:56,1;0,0007
118;Max.;0,0007;21.10.2019 16:35:56,1
118;Min.;0,0007;21.10.2019 16:35:56,1
119;Messwert;0,0007;21.10.2019 16:35:57,1;0,000685714285714286
119;Max.;0,0007;21.10.2019 16:35:57,1
119;Min.;0,0006;21.10.2019 16:35:57,5
120;Messwert;0,0007;21.10.2019 16:35:58,1;0,0006875
120;Max.;0,0007;21.10.2019 16:35:58,1
120;Min.;0,0006;21.10.2019 16:35:58,8
121;Messwert;0,0006;21.10.2019 16:35:59,1;0,0006
121;Max.;0,0006;21.10.2019 16:35:59,1
121;Min.;0,0006;21.10.2019 16:35:59,1
122;Messwert;0,0006;21.10.2019 16:35:59,7;
